<svg width="11" height="18" viewBox="0 0 11 18" fill="none" xmlns="http://www.w3.org/2000/svg">
    <path d="M3.33431 0.967975C2.76226 0.395929 1.84483 0.395929 1.27278 0.967975C0.700739 1.54002 0.700739 2.45745 1.27278 3.0295L7.33862 9.09535L1.27278 15.1612C0.700739 15.7332 0.700739 16.6507 1.27278 17.2227C1.55341 17.5033 1.93118 17.6545 2.29815 17.6545C2.66512 17.6545 3.04289 17.5141 3.32351 17.2227L10.4147 10.1315C10.9868 9.55946 10.9868 8.64203 10.4147 8.06998L3.33431 0.967975Z" fill="#333333"/>
</svg>
