<svg width="7" height="12" viewBox="0 0 7 12" fill="none" xmlns="http://www.w3.org/2000/svg">
    <path d="M2.33808 1.21946C1.99486 0.876229 1.4444 0.876229 1.10117 1.21946C0.757943 1.56268 0.757943 2.11314 1.10117 2.45637L4.74067 6.09588L1.10117 9.73539C0.757943 10.0786 0.757943 10.6291 1.10117 10.9723C1.26955 11.1407 1.49621 11.2313 1.71639 11.2313C1.93657 11.2313 2.16323 11.1472 2.33161 10.9723L6.58633 6.71758C6.92956 6.37435 6.92956 5.82389 6.58633 5.48066L2.33808 1.21946Z" fill="white"/>
</svg>
