<svg width="56" height="55" viewBox="0 0 56 55" fill="none" xmlns="http://www.w3.org/2000/svg">
    <g clip-path="url(#clip0_2224_6538)">
        <path d="M50.1794 53.3887V53.8887H50.6794H52.7028C52.8716 53.8887 53.0085 54.0256 53.0085 54.1944C53.0085 54.3632 52.8717 54.5001 52.7028 54.5001H6.87201C6.70315 54.5001 6.56635 54.3632 6.56635 54.1944C6.56635 54.0255 6.70315 53.8887 6.87201 53.8887H8.89541H9.39541V53.3887V40.7635C9.39541 40.3585 9.72574 40.0282 10.1308 40.0282H14.9296C15.3346 40.0282 15.665 40.3585 15.665 40.7635V53.3887V53.8887H16.165H17.5241H18.0241V53.3887V30.577C18.0241 30.172 18.3544 29.8417 18.7594 29.8417H23.5582C23.9632 29.8417 24.2935 30.172 24.2935 30.577V45.3321C24.2935 45.5009 24.1567 45.6377 23.9879 45.6377C23.819 45.6377 23.6822 45.5009 23.6822 45.3321V30.953V30.453H23.1822H19.1354H18.6354V30.953V53.3887V53.8887H19.1354H23.1822H23.6822V53.3887V49.0918C23.6822 48.923 23.819 48.7862 23.9879 48.7862C24.1567 48.7862 24.2935 48.923 24.2935 49.0918V53.3887V53.8887H24.7935H26.1527H26.6527V53.3887V35.3864C26.6527 34.9814 26.9831 34.6511 27.3881 34.6511H32.1868C32.5919 34.6511 32.9222 34.9814 32.9222 35.3864V53.3887V53.8887H33.4222H34.7813H35.2813V53.3887V40.9031C35.2813 40.498 35.6116 40.1677 36.0166 40.1677H40.8154C41.2204 40.1677 41.5507 40.498 41.5507 40.9031V53.3887V53.8887H42.0507H43.41H43.91V53.3887V30.7532C43.91 30.3482 44.2403 30.0178 44.6453 30.0178H49.444C49.8491 30.0178 50.1794 30.3482 50.1794 30.7532V33.8379C50.1794 34.0068 50.0426 34.1436 49.8737 34.1436C49.7049 34.1436 49.5681 34.0068 49.5681 33.8379V31.1291V30.6291H49.0681H45.0213H44.5213V31.1291V53.3887V53.8887H45.0213H49.0681H49.5681V53.3887V37.5977C49.5681 37.4289 49.7049 37.292 49.8737 37.292C50.0426 37.292 50.1794 37.4289 50.1794 37.5977V53.3887ZM14.5535 53.8887H15.0535V53.3887V41.1395V40.6395H14.5535H10.5067H10.0067V41.1395V53.3887V53.8887H10.5067H14.5535ZM31.8107 53.8887H32.3107V53.3887V35.7624V35.2624H31.8107H27.764H27.264V35.7624V53.3887V53.8887H27.764H31.8107ZM40.4394 53.8887H40.9394V53.3887V41.279V40.779H40.4394H36.3926H35.8926V41.279V53.3887V53.8887H36.3926H40.4394Z" fill="#4B455C" stroke="#4B455C"/>
        <path d="M15.6011 23.2154L15.924 22.9031L15.6479 22.5487C14.7249 21.3642 14.174 19.8786 14.174 18.2653C14.174 17.5458 14.2858 16.8525 14.4896 16.1984L14.6918 15.5497H14.0122H2.32302C1.87194 15.5497 1.50409 15.1819 1.50409 14.7307V9.40436C1.50409 8.9531 1.87186 8.58533 2.32302 8.58533H16.1624C16.6135 8.58533 16.9813 8.95312 16.9813 9.40436V11.7491V12.6072L17.7279 12.1841C18.7419 11.6093 19.912 11.2802 21.1587 11.2802C22.5915 11.2802 23.9682 11.7119 25.1428 12.5291C25.2814 12.6256 25.3156 12.8161 25.2192 12.9546C25.1227 13.0933 24.9323 13.1273 24.7938 13.031L24.7938 13.0309C23.7227 12.2858 22.4648 11.8917 21.1587 11.8917C19.6478 11.8917 18.2597 12.4225 17.1675 13.3032L16.9813 13.4533V13.6924V14.7304C16.9813 15.1817 16.6135 15.5495 16.1624 15.5495H15.7203H15.3847L15.2576 15.8601C14.9537 16.6028 14.7852 17.4148 14.7852 18.2652C14.7852 19.6699 15.2433 20.9699 16.0157 22.0241L16.3545 22.4865L16.7666 22.088L18.3992 20.509L18.6866 20.231L18.4787 19.8895C18.1902 19.4157 18.024 18.8601 18.024 18.2652C18.024 16.5371 19.4307 15.1304 21.1587 15.1304C22.8867 15.1304 24.2934 16.5371 24.2934 18.2652C24.2934 18.7344 24.1892 19.1791 24.0035 19.5791L23.8353 19.9417L24.1519 20.1857L25.9517 21.5724L26.4056 21.9221L26.6906 21.425C27.2248 20.4932 27.5322 19.4144 27.5322 18.2653C27.5322 17.4298 27.3715 16.6145 27.0549 15.8441L27.0549 15.844C26.9907 15.6878 27.0652 15.5093 27.2211 15.4451C27.3781 15.3809 27.5562 15.4557 27.6202 15.6115C27.9675 16.4564 28.1435 17.3485 28.1435 18.2652C28.1435 19.5987 27.7677 20.8449 27.1169 21.9058L26.8818 22.289L27.2379 22.5633L35.7962 29.1574L36.1126 29.4012L36.4202 29.1465C36.9634 28.6968 37.6584 28.427 38.4159 28.427C39.0113 28.427 39.5674 28.5937 40.0417 28.8827L40.3831 29.0907L40.6611 28.8036L44.3609 24.9826L44.639 24.6954L44.4201 24.3609C44.0976 23.8683 43.9098 23.2813 43.9098 22.6503C43.9098 20.9223 45.3165 19.5156 47.0446 19.5156C48.7726 19.5156 50.1793 20.9223 50.1793 22.6503C50.1793 24.3784 48.7726 25.7851 47.0446 25.7851C46.4491 25.7851 45.8931 25.6185 45.4188 25.3294L45.0774 25.1213L44.7994 25.4085L41.0995 29.2296L40.8215 29.5168L41.0404 29.8513C41.3628 30.3439 41.5506 30.9308 41.5506 31.5618C41.5506 33.2899 40.1439 34.6966 38.4159 34.6966C36.6879 34.6966 35.2812 33.2899 35.2812 31.5618C35.2812 31.0926 35.3854 30.648 35.5711 30.248L35.7393 29.8854L35.4227 29.6415L26.8623 23.0458L26.507 22.7719L26.1964 23.0957C24.923 24.423 23.1361 25.2501 21.1587 25.2501C19.4618 25.2501 17.9054 24.6417 16.6931 23.631L16.3482 23.3434L16.0253 23.6556L15.2896 24.3672L15.0022 24.6451L15.2101 24.9866C15.4986 25.4605 15.6649 26.0161 15.6649 26.611C15.6649 28.339 14.2582 29.7457 12.5301 29.7457C10.8021 29.7457 9.39541 28.339 9.39541 26.611C9.39541 24.883 10.8021 23.4763 12.5301 23.4763C13.1618 23.4763 13.7492 23.6643 14.2422 23.9873L14.5766 24.2064L14.8639 23.9285L15.6011 23.2154ZM19.4467 20.8888L19.1124 20.6697L18.8251 20.9476L17.1924 22.5268L16.7802 22.9255L17.2313 23.2796C18.3137 24.1291 19.6777 24.6387 21.1588 24.6387C22.8966 24.6387 24.4734 23.9386 25.6232 22.8087L26.0326 22.4063L25.5779 22.056L23.7785 20.6695L23.4621 20.4257L23.1545 20.6804C22.6113 21.1301 21.9163 21.3999 21.1588 21.3999C20.5271 21.3999 19.9397 21.2118 19.4467 20.8888ZM2.11531 14.4383V14.9383H2.61531H15.87H16.37V14.4383V9.69655V9.19655H15.87H2.61531H2.11531V9.69655V14.4383ZM10.0067 26.611C10.0067 28.0028 11.1383 29.1344 12.5301 29.1344C13.922 29.1344 15.0535 28.0028 15.0535 26.611C15.0535 25.2192 13.922 24.0876 12.5301 24.0876C11.1383 24.0876 10.0067 25.2192 10.0067 26.611ZM49.5681 22.6503C49.5681 21.2585 48.4365 20.1269 47.0447 20.1269C45.6529 20.1269 44.5213 21.2585 44.5213 22.6503C44.5213 24.0422 45.6529 25.1737 47.0447 25.1737C48.4365 25.1737 49.5681 24.0422 49.5681 22.6503ZM40.9394 31.5618C40.9394 30.17 39.8078 29.0384 38.416 29.0384C37.0242 29.0384 35.8926 30.17 35.8926 31.5618C35.8926 32.9537 37.0242 34.0852 38.416 34.0852C39.8078 34.0852 40.9394 32.9537 40.9394 31.5618ZM23.6821 18.2653C23.6821 16.8734 22.5505 15.7419 21.1587 15.7419C19.767 15.7419 18.6353 16.8734 18.6353 18.2653C18.6353 19.6571 19.7669 20.7887 21.1587 20.7887C22.5505 20.7887 23.6821 19.6571 23.6821 18.2653Z" fill="#4B455C" stroke="#4B455C"/>
        <path d="M4.61053 11.7618H6.5495C6.71845 11.7618 6.85527 11.8987 6.85527 12.0675C6.85527 12.2363 6.71847 12.3732 6.54961 12.3732H4.61053C4.44167 12.3732 4.30487 12.2363 4.30487 12.0675C4.30487 11.8987 4.44167 11.7618 4.61053 11.7618Z" fill="#4B455C" stroke="#4B455C"/>
        <path d="M9.06604 11.7618H13.8748C14.0436 11.7618 14.1804 11.8987 14.1804 12.0675C14.1804 12.2363 14.0436 12.3732 13.8748 12.3732H9.06604C8.89718 12.3732 8.76038 12.2363 8.76038 12.0675C8.76038 11.8987 8.89718 11.7618 9.06604 11.7618Z" fill="#4B455C" stroke="#4B455C"/>
        <path d="M45.2889 15.676C45.2985 15.6958 45.3088 15.7151 45.3199 15.7341L46.3634 17.5124C46.5081 17.7588 46.7726 17.9103 47.0583 17.9103C47.3441 17.9103 47.6085 17.7588 47.7532 17.5123L48.7967 15.7338C48.8079 15.7149 48.8181 15.6955 48.8275 15.6759C52.4072 14.8601 54.9961 11.6201 54.9961 7.93775C54.9961 5.74807 54.1238 3.70898 52.5397 2.19638C50.9564 0.684522 48.8765 -0.0916014 46.6835 0.00862321C44.7225 0.0990724 42.8687 0.918809 41.464 2.3168C40.059 3.715 39.2304 5.5647 39.1309 7.52515C38.934 11.4046 41.5192 14.8186 45.2889 15.676ZM40.7401 7.607C40.903 4.39691 43.5462 1.76637 46.7577 1.61834C48.5071 1.53745 50.1649 2.15674 51.4268 3.3618C52.6895 4.5675 53.3848 6.19269 53.3848 7.93786C53.3848 10.8962 51.2889 13.4962 48.4013 14.1201C47.9409 14.2196 47.5552 14.5429 47.374 14.9744L47.0583 15.5127L46.7425 14.9744C46.5611 14.543 46.1746 14.2196 45.7129 14.1196C42.6733 13.4615 40.582 10.7226 40.7401 7.607Z" fill="#D2353B"/>
        <path d="M46.2387 8.74355H47.8779C48.2514 8.74355 48.5553 9.04745 48.5553 9.42095C48.5553 9.79457 48.2514 10.0985 47.8779 10.0985H44.9898C44.5447 10.0985 44.1841 10.4592 44.1841 10.9041C44.1841 11.3491 44.5447 11.7098 44.9898 11.7098H46.2526V12.4262C46.2526 12.8711 46.6132 13.2319 47.0583 13.2319C47.5033 13.2319 47.864 12.8711 47.864 12.4262V11.7098H47.8779C49.1399 11.7098 50.1667 10.6831 50.1667 9.42095C50.1667 8.15896 49.1399 7.13222 47.8779 7.13222H46.2387C45.8651 7.13222 45.5612 6.82833 45.5612 6.45471C45.5612 6.08121 45.8651 5.77731 46.2387 5.77731H49.1268C49.5719 5.77731 49.9325 5.41659 49.9325 4.97165C49.9325 4.5267 49.5719 4.16598 49.1268 4.16598H47.864V3.44959C47.864 3.00464 47.5033 2.64392 47.0583 2.64392C46.6132 2.64392 46.2526 3.00464 46.2526 3.44959V4.16598H46.2387C44.9767 4.16598 43.9498 5.19272 43.9498 6.45482C43.9498 7.71681 44.9767 8.74355 46.2387 8.74355Z" fill="#D2353B"/>
    </g>
    <defs>
        <clipPath id="clip0_2224_6538">
            <rect width="55" height="55" fill="white" transform="translate(0.5)"/>
        </clipPath>
    </defs>
</svg>
