<svg width="56" height="55" viewBox="0 0 56 55" fill="none" xmlns="http://www.w3.org/2000/svg">
    <path d="M47.286 2.99121H8.71409C5.56328 2.99121 3 5.55459 3 8.7053V11.3226C3 11.7271 3.32784 12.055 3.73245 12.055C4.13706 12.055 4.4649 11.7271 4.4649 11.3226V8.7053C4.4649 6.36234 6.37113 4.45611 8.71409 4.45611H47.286C49.629 4.45611 51.5352 6.36234 51.5352 8.7053V31.699H4.4649V14.2524C4.4649 13.8479 4.13706 13.5199 3.73245 13.5199C3.32784 13.5199 3 13.8479 3 14.2524V34.9837C3 38.1345 5.56328 40.6978 8.71409 40.6978H19.1008V43.9047L15.9854 47.1521C15.1762 47.9966 14.9585 49.1894 15.4177 50.2651C15.8766 51.3406 16.888 52.0087 18.0573 52.0087H39.6734C40.4758 52.0087 41.2149 51.6931 41.7547 51.1199C42.3033 50.5376 42.5907 49.7478 42.5431 48.9531C42.5191 48.5493 42.1725 48.2424 41.7683 48.2655C41.3645 48.2897 41.0568 48.6365 41.0809 49.0404C41.1043 49.4338 40.9612 49.8257 40.6883 50.1153C40.5043 50.3106 40.1788 50.5436 39.6732 50.5436H18.0571C17.476 50.5436 16.9929 50.2244 16.7648 49.69C16.5366 49.1552 16.6406 48.5853 17.0426 48.1658L20.1459 44.9311H37.5844L39.6739 47.1091C39.9539 47.4011 40.4176 47.4106 40.7095 47.1306C41.0014 46.8505 41.011 46.3869 40.731 46.095L38.6295 43.9047V40.6978H47.2857C50.4365 40.6978 52.9998 38.1344 52.9998 34.9837V8.7053C53 5.55459 50.4367 2.99121 47.286 2.99121ZM37.1649 43.4664H20.5657V40.6981H37.1649V43.4664ZM47.286 39.2329H8.71409C6.37113 39.2329 4.4649 37.3266 4.4649 34.9837V33.1639H51.5351V34.9837C51.5351 37.3267 49.629 39.2329 47.286 39.2329Z" fill="#4B455C"/>
    <path d="M46.3019 20.0369C46.0941 19.2618 45.5075 18.6753 44.7326 18.4676C44.7325 18.4676 44.7325 18.4676 44.7325 18.4676L36.7014 16.3161C35.9268 16.1087 35.1252 16.3232 34.5579 16.8906C33.9906 17.4579 33.7759 18.2592 33.9835 19.0341L36.1346 27.0655C36.3422 27.8405 36.9288 28.4271 37.7038 28.6349C38.4786 28.8426 39.2802 28.6278 39.8476 28.0605L40.6253 27.2829L43.0027 29.6603C43.5796 30.2373 44.3476 30.555 45.1652 30.555C45.9828 30.555 46.7507 30.2373 47.3277 29.6603C47.9046 29.0834 48.2222 28.3154 48.2222 27.4978C48.2222 26.6803 47.9046 25.9123 47.3277 25.3354L44.9501 22.958L45.7276 22.1806C46.2947 21.6132 46.5095 20.8118 46.3019 20.0369ZM46.2916 26.3713C46.9128 26.9925 46.9128 28.0033 46.2916 28.6245C45.9914 28.9247 45.5913 29.0902 45.1651 29.0902C44.7389 29.0902 44.3388 28.9248 44.0386 28.6245L41.1433 25.7292C41.0002 25.5862 40.8127 25.5146 40.6253 25.5146C40.4379 25.5146 40.2503 25.5861 40.1073 25.7292L38.8117 27.0248C38.5337 27.3028 38.2094 27.2539 38.0829 27.2201C37.9564 27.1862 37.6512 27.0662 37.5496 26.6865L35.3983 18.6552C35.2966 18.2755 35.501 18.0191 35.5936 17.9265C35.6862 17.834 35.9429 17.6295 36.3223 17.7313L44.3533 19.8828H44.3532C44.733 19.9845 44.8529 20.2897 44.8868 20.4162C44.9207 20.5427 44.9696 20.867 44.6916 21.1449L43.3963 22.4402C43.2589 22.5775 43.1817 22.7638 43.1817 22.9581C43.1817 23.1523 43.2589 23.3387 43.3962 23.476L46.2916 26.3713Z" fill="#D2353B"/>
    <path d="M35.2953 7.27783H9.3154C8.91079 7.27783 8.58295 7.60577 8.58295 8.01028C8.58295 8.41479 8.91079 8.74273 9.3154 8.74273H35.2953C35.6999 8.74273 36.0278 8.41479 36.0278 8.01028C36.0278 7.60577 35.6999 7.27783 35.2953 7.27783Z" fill="#4B455C"/>
    <path d="M25.1992 11.389C24.7946 11.389 24.4667 11.7169 24.4667 12.1214C24.4667 12.5259 24.7946 12.8539 25.1992 12.8539H28.9308C29.3354 12.8539 29.6632 12.5259 29.6632 12.1214C29.6632 11.7169 29.3354 11.389 28.9308 11.389H25.1992Z" fill="#4B455C"/>
    <path d="M9.3157 11.389C8.9111 11.389 8.58325 11.7169 8.58325 12.1214C8.58325 12.5259 8.9111 12.8539 9.3157 12.8539H22.2694C22.674 12.8539 23.0019 12.5259 23.0019 12.1214C23.0019 11.7169 22.674 11.389 22.2694 11.389H9.3157Z" fill="#4B455C"/>
    <path d="M9.3154 16.9652H28.9303C29.3349 16.9652 29.6628 16.6373 29.6628 16.2328C29.6628 15.8282 29.3349 15.5003 28.9303 15.5003H9.3154C8.91079 15.5003 8.58295 15.8282 8.58295 16.2328C8.58295 16.6373 8.91079 16.9652 9.3154 16.9652Z" fill="#4B455C"/>
    <path d="M9.3154 21.0764H28.9303C29.3349 21.0764 29.6628 20.7485 29.6628 20.344C29.6628 19.9395 29.3349 19.6115 28.9303 19.6115H9.3154C8.91079 19.6115 8.58295 19.9395 8.58295 20.344C8.58295 20.7485 8.91079 21.0764 9.3154 21.0764Z" fill="#4B455C"/>
    <path d="M9.3154 25.1877H17.2393C17.6439 25.1877 17.9718 24.8597 17.9718 24.4552C17.9718 24.0507 17.6439 23.7228 17.2393 23.7228H9.3154C8.91079 23.7228 8.58295 24.0507 8.58295 24.4552C8.58295 24.8597 8.91079 25.1877 9.3154 25.1877Z" fill="#4B455C"/>
    <path d="M9.3154 29.2989H28.9303C29.3349 29.2989 29.6628 28.9709 29.6628 28.5664C29.6628 28.1619 29.3349 27.834 28.9303 27.834H9.3154C8.91079 27.834 8.58295 28.1619 8.58295 28.5664C8.58295 28.9709 8.91079 29.2989 9.3154 29.2989Z" fill="#4B455C"/>
</svg>
