<svg width="40" height="30" viewBox="0 0 40 30" fill="none" xmlns="http://www.w3.org/2000/svg">
    <path d="M23.7656 0.580566H38.8281C39.4753 0.580566 40 1.10525 40 1.75244V16.815C40 17.4622 39.4753 17.9869 38.8281 17.9869H32.4688V28.1119C32.4688 28.759 31.9442 29.2837 31.297 29.2837H27.5313C27.0269 29.2837 26.5791 28.9609 26.4196 28.4824L22.654 17.1855C22.6142 17.0661 22.5939 16.9409 22.5939 16.815V1.75244C22.5938 1.10525 23.1185 0.580566 23.7656 0.580566Z" fill="#FF9C9F"/>
    <path d="M1.1719 0.580566H16.2344C16.8816 0.580566 17.4062 1.10525 17.4062 1.75244V16.815C17.4062 17.4622 16.8816 17.9869 16.2344 17.9869H9.87501V28.1119C9.87501 28.759 9.35033 29.2837 8.70314 29.2837H4.93752C4.43315 29.2837 3.98526 28.9609 3.82588 28.4824L0.0601828 17.1855C0.0203391 17.0661 2.75135e-05 16.9409 2.75135e-05 16.815V1.75244C2.75135e-05 1.10525 0.524714 0.580566 1.1719 0.580566Z" fill="#FF9C9F"/>
</svg>
