<svg id="Component_6_1" data-name="Component 6 – 1" xmlns="http://www.w3.org/2000/svg" width="680" height="382" viewBox="0 0 680 382">
  <rect id="Rectangle_2156" data-name="Rectangle 2156" width="680" height="382" fill="#948a8a"/>
  <g id="Group_1419" data-name="Group 1419" transform="translate(150.106 25.274)">
    <path id="Path_1600" data-name="Path 1600" d="M720.826,395.876c7.642-7.135,16.782-11.96,25.873-16.883,9.341-5.058,19-9.477,28.58-14.03,8.126-3.861,16.467-7.27,24.722-10.859,5.537-2.407,11.066-4.838,16.644-7.148,6.483-2.685,13.005-5.274,19.535-7.843a3.027,3.027,0,0,0,2.083-2.068c1.246-4.273,3.5-8.134,5.084-12.273a16.208,16.208,0,0,0,1-5.613,13.514,13.514,0,0,1,3.4-8.882,6.247,6.247,0,0,1,5.209-2c2.181.092,2.826-.845,3.055-3.014.868-8.223,1.181-16.5,2.494-24.68.223-1.386.373-2.785.5-4.183a2.683,2.683,0,0,0-.794-2.388,50.223,50.223,0,0,1-11.615-17.554,66.709,66.709,0,0,1-3.579-14.551c-.515-3.422-1.5-6.775-2.285-10.156a3.2,3.2,0,0,0-.974-1.448,21.988,21.988,0,0,1-5.583-11.125,123.07,123.07,0,0,1-2.675-22.374c-.04-1.983-.59-3.927-.5-5.948.143-3.18,1.075-4.359,4.262-4.368,2.014-.006,2.538-.818,2.51-2.669q-.118-7.891-.017-15.786c.1-9.178.013-18.369.512-27.528.3-5.483.274-10.95.276-16.42a35.028,35.028,0,0,1,3.023-13.508c4.391-10.657,12.243-18.354,21.31-24.876a99.028,99.028,0,0,1,23.647-12.338,149.4,149.4,0,0,1,21.322-6.35c6.9-1.433,13.691-3.4,20.592-4.84a87.689,87.689,0,0,1,18.951-1.629,2.228,2.228,0,0,1,.444.018c1.147.25,2.51.3,3.031,1.531.575,1.359-.747,2.038-1.543,2.637a48.827,48.827,0,0,0-6.516,5.649,4.7,4.7,0,0,0,.724,6.91A164.056,164.056,0,0,1,966.1,94.775,64.418,64.418,0,0,1,979.9,111.9a25.7,25.7,0,0,1,3.2,11.381c.691,19.849.293,39.7.406,59.554,0,.3.014.593,0,.889-.06,1.244-.5,2.629-.1,3.7.576,1.537,2.221.2,3.406.626a3.41,3.41,0,0,1,2.493,3.245,12.789,12.789,0,0,1-.037,3.769c-1.389,6.15-.689,12.5-1.98,18.685-.552,2.644-.8,5.343-1.6,7.977-.951,3.143-1.77,6.353-4.164,8.7-2.31,2.265-2.492,5.278-3.218,8.049-1.412,5.393-2.813,10.761-4.6,16.065a57.954,57.954,0,0,1-8.9,16.9,7.978,7.978,0,0,0-1.277,4.854c-.266,10.063-.43,20.129-.662,30.193-.02.874.37,1.148,1.116,1.33,5.336,1.3,7.41,3.8,8.06,9.242.331,2.77.31,5.647,1.548,8.237a72.4,72.4,0,0,1,4.872,11.772c.679,2.45,3.127,2.754,4.877,3.334,6.028,2,11.846,4.505,17.723,6.862,7.448,2.986,14.739,6.382,22.251,9.187,5.259,1.964,10.334,4.319,15.483,6.506,6.616,2.81,13.116,5.892,19.651,8.892,5.285,2.427,10.6,4.8,15.8,7.39s10.332,5.363,15.427,8.175c3.147,1.737,5.394,4.568,7.926,7.04a15.949,15.949,0,0,0,2.876,2.748c0,6.3-.027,12.6.028,18.9.008.956-.183,1.311-1.142,1.12a4.652,4.652,0,0,0-.887-.008H720.774c-.48-2.257-.175-4.54-.206-6.809-.056-4.127-.029-8.255,0-12.382C720.57,397.3,720.323,396.536,720.826,395.876Z" transform="translate(-720.325 -60.538)" fill="#f0f0f0"/>
    <path id="Path_1601" data-name="Path 1601" d="M720.547,810.952c0,.517.038,1.034.059,1.55l-.052,21.33c-.137-.1-.464.225-.449-.222.019-.592,0-1.185,0-1.777" transform="translate(-720.104 -479.276)" fill="#c5ccdf"/>
  </g>
</svg>
