<svg width="64" height="63" viewBox="0 0 64 63" fill="none" xmlns="http://www.w3.org/2000/svg">
    <circle cx="31.8611" cy="31.4998" r="31.4998" fill="#E83231"/>
    <rect x="16.8008" y="15.6807" width="29.3612" height="32.3974" rx="1.5" stroke="white"/>
    <line x1="25.4092" y1="17.7173" x2="46.6621" y2="17.7173" stroke="white"/>
    <line x1="27.6865" y1="19.9941" x2="38.313" y2="19.9941" stroke="white"/>
    <line x1="20.0967" y1="22.271" x2="25.4099" y2="22.271" stroke="white"/>
    <line x1="20.0967" y1="30.1538" x2="26.928" y2="30.1538" stroke="white"/>
    <line x1="20.0967" y1="36.6929" x2="26.928" y2="36.6929" stroke="white"/>
    <line x1="18.5781" y1="17.7173" x2="19.3372" y2="17.7173" stroke="white"/>
    <line x1="20.8555" y1="17.7173" x2="21.6145" y2="17.7173" stroke="white"/>
    <line x1="23.1318" y1="17.7173" x2="23.8909" y2="17.7173" stroke="white"/>
    <rect x="20.5967" y="24.7891" width="22.53" height="2.41564" rx="0.5" fill="#E83231" stroke="white"/>
    <rect x="20.5967" y="39.9697" width="22.53" height="2.41564" rx="0.5" fill="#E83231" stroke="white"/>
    <rect x="20.5967" y="32.3794" width="22.53" height="2.41564" rx="0.5" fill="#E83231" stroke="white"/>
    <rect x="32.999" y="33.3975" width="9.10837" height="3.03612" fill="#E83231"/>
    <rect x="32.999" y="26.5664" width="9.10837" height="3.03612" fill="#E83231"/>
    <path d="M36.1094 25.2334V31.4957L36.5973 31.1589L37.7849 30.332L38.3836 31.3198L38.5123 31.5418L38.7796 31.4269L39.6908 31.0364L39.9486 30.9293L39.8199 30.7071L39.2766 29.819L40.7683 29.6659L41.3664 29.6047L40.9433 29.2526L36.6161 25.6467L36.1094 25.2334ZM36.6986 26.4201L40.1054 29.2448L38.7796 29.3751L38.365 29.4212L38.5586 29.7348L39.1661 30.7147L38.7793 30.8832L38.144 29.8269L37.969 29.5513L37.6838 29.7502L36.6986 30.4393V26.4201Z" fill="white"/>
</svg>
