<svg width="64" height="63" viewBox="0 0 64 63" fill="none" xmlns="http://www.w3.org/2000/svg">
    <circle cx="31.741" cy="31.4998" r="31.4998" fill="#E83231"/>
    <rect x="15.9219" y="15.6812" width="31.6383" height="7.34934" rx="2.5" fill="#E83231" stroke="white"/>
    <path d="M18.9008 22.0124C18.9008 22.0124 18.458 22.0124 18.458 21.5697C18.458 21.1269 18.9008 19.7986 21.1146 19.7986C23.3285 19.7986 23.7712 21.1269 23.7712 21.5697C23.7712 22.0124 23.3285 22.0124 23.3285 22.0124H18.9008ZM21.1146 19.3558C21.4669 19.3558 21.8048 19.2159 22.0539 18.9668C22.303 18.7177 22.4429 18.3798 22.4429 18.0275C22.4429 17.6752 22.303 17.3374 22.0539 17.0883C21.8048 16.8392 21.4669 16.6992 21.1146 16.6992C20.7623 16.6992 20.4245 16.8392 20.1754 17.0883C19.9263 17.3374 19.7863 17.6752 19.7863 18.0275C19.7863 18.3798 19.9263 18.7177 20.1754 18.9668C20.4245 19.2159 20.7623 19.3558 21.1146 19.3558Z" fill="white"/>
    <line x1="26.5479" y1="17.7173" x2="30.8611" y2="17.7173" stroke="white" stroke-linecap="round"/>
    <line x1="26.5479" y1="20.7534" x2="40.7285" y2="20.7534" stroke="white" stroke-linecap="round"/>
    <rect x="15.9219" y="27.8252" width="31.6383" height="7.34934" rx="2.5" fill="#E83231" stroke="white"/>
    <line x1="26.5479" y1="29.8613" x2="30.8611" y2="29.8613" stroke="white" stroke-linecap="round"/>
    <line x1="26.5479" y1="32.8975" x2="40.7285" y2="32.8975" stroke="white" stroke-linecap="round"/>
    <path d="M19.2429 29.6025H22.9863C23.1868 29.6025 23.3797 29.6829 23.5254 29.8271C23.6712 29.9714 23.7587 30.1686 23.77 30.3783L23.7712 30.4248V33.3344C23.7712 33.5445 23.6945 33.7466 23.5568 33.8992C23.4192 34.0519 23.2309 34.1436 23.0308 34.1555L22.9863 34.1567H19.2429C19.0424 34.1567 18.8495 34.0764 18.7038 33.9321C18.5581 33.7879 18.4706 33.5907 18.4592 33.381L18.458 33.3344V30.4248C18.458 30.2148 18.5347 30.0127 18.6724 29.86C18.8101 29.7074 18.9983 29.6157 19.1985 29.6038L19.2429 29.6025ZM23.409 31.0966L21.1982 32.3009C21.1768 32.3126 21.1533 32.3196 21.1293 32.3217C21.1052 32.3237 21.081 32.3207 21.0581 32.3128L21.0311 32.3009L18.8203 31.0966V33.3344C18.8203 33.4456 18.8602 33.5526 18.932 33.6344C19.0039 33.7161 19.1024 33.7665 19.2081 33.7757L19.2429 33.7772H22.9863C23.0924 33.7772 23.1946 33.7354 23.2727 33.6601C23.3507 33.5847 23.3988 33.4814 23.4075 33.3706L23.409 33.3344V31.0966ZM22.9863 29.9821H19.2429C19.1368 29.9821 19.0347 30.0238 18.9566 30.0991C18.8786 30.1744 18.8304 30.2776 18.8217 30.3884L18.8203 30.4248V30.6687L21.1146 31.9186L23.409 30.6687V30.4248C23.409 30.3137 23.369 30.2066 23.2971 30.1248C23.2252 30.0431 23.1266 29.9927 23.0209 29.9836L22.9863 29.9821Z" fill="white"/>
    <rect x="21.2354" y="39.9697" width="21.7709" height="8.10838" rx="4.05419" fill="#E83231" stroke="white"/>
    <path d="M29.085 44.176L31.3621 46.3013L35.9162 41.7471" stroke="white" stroke-width="1.2" stroke-linecap="round" stroke-linejoin="round"/>
</svg>
